date;Cash and cash equivalents;Accounts receivable, net of allowance for doubtful accounts;Inventories, excludes inventories classified in Other assets;Current assets;Property, plant and equipment, at cost, net of accumulated depreciation;Goodwill;Other assets;Noncurrent assets;Total assets;price;name;Short-term investments
Sep 30, 2019;7.869;8.442;5.855;26.142;14.287;19.480;9.004;57.189;83.331;86;;
Jun 30, 2019;6.659;7.964;5.847;24.298;13.862;19.490;9.155;59.667;83.965;82;;
Mar 31, 2019;8.076;7.608;5.712;25.351;13.506;18.170;8.707;57.003;82.354;78;;
Dec 31, 2018;7.965;7.071;5.440;25.875;13.291;18.253;7.554;56.762;82.637;76;;
Sep 30, 2018;7.826;7.374;5.416;26.836;12.755;18.258;7.500;58.294;85.130;73;;
Jun 30, 2018;5.310;7.287;5.178;24.064;12.626;18.274;7.145;60.976;85.040;65;;
Mar 31, 2018;4.483;7.245;5.382;24.085;12.561;18.304;6.558;61.956;86.041;58;;
Dec 31, 2017;6.092;6.873;5.096;24.766;12.439;18.284;6.075;63.106;87.872;59;;
Sep 30, 2017;7.901;7.671;5.263;27.919;12.189;18.340;5.884;63.757;91.676;55;;
Jun 30, 2017;7.786;7.439;5.407;28.167;12.094;18.358;5.928;64.637;92.804;63;;
Mar 31, 2017;11.708;7.066;5.146;31.530;12.042;18.358;5.872;65.031;96.561;62;;
Dec 31, 2016;6.515;7.018;4.866;30.614;12.026;18.162;5.854;64.763;95.377;61;;
Sep 30, 2016;7.907;7.364;5.244;29.440;12.029;18.260;6.443;68.895;98.335;58;;
Jun 30, 2016;6.608;6.916;5.248;27.926;11.987;17.809;6.559;68.549;96.475;58;;
Mar 31, 2016;9.716;6.850;5.102;28.772;12.360;17.784;5.921;69.983;98.755;54;;
Dec 31, 2015;8.524;6.484;4.700;29.764;12.507;17.723;6.144;72.015;101.779;52;;
Sep 30, 2015;7.548;6.414;5.123;28.567;12.482;17.761;5.618;72.665;101.232;54;;
Jun 30, 2015;6.922;6.510;5.306;28.319;12.630;17.707;5.843;74.263;102.582;58;;
Mar 31, 2015;7.980;6.670;5.539;32.927;12.910;17.740;5.596;75.418;108.345;59;;
Dec 31, 2014;7.441;6.626;5.571;33.173;13.136;12.992;5.133;65.162;98.335;56.5;;
Sep 30, 2014;11.370;6.515;5.819;34.723;13.438;13.171;6.589;67.085;101.808;57;;
Jun 30, 2014;9.743;7.022;6.136;33.587;13.893;11.789;7.143;64.273;97.860;56;;
Mar 31, 2014;15.828;7.188;6.376;41.240;14.296;12.120;8.831;67.220;108.460;58;;
Sep 30, 2019;23.255;16.887;18.766;79.054;67.662;14.734;14.535;120.045;199.099;1.776;;
Jun 30, 2019;22.616;16.747;18.580;76.790;64.723;14.727;13.462;114.561;191.351;1.866;;
Mar 31, 2019;23.115;15.979;16.432;69.431;61.048;14.708;12.783;108.671;178.102;1.926;;
Dec 31, 2018;31.750;16.677;17.174;75.101;61.797;14.548;11.202;87.547;162.648;1.501;;
Sep 30, 2018;20.425;14.258;15.862;59.885;58.019;14.553;11.238;83.810;143.695;1.598;;
Jun 30, 2018;19.823;12.607;14.824;54.481;54.768;13.944;10.907;79.619;134.100;1.777;;
Mar 31, 2018;16.676;12.026;13.840;50.829;52.331;13.388;9.814;75.533;126.362;1.566;;
Dec 31, 2017;20.522;13.164;16.047;60.197;48.866;13.350;8.897;71.113;131.310;1.169;;
Sep 30, 2017;12.767;10.557;13.711;48.578;45.335;13.271;8.083;66.689;115.267;1.105;;
Jun 30, 2017;13.203;8.046;11.510;41.007;37.083;4.254;5.437;46.774;87.781;987;;
Mar 31, 2017;15.440;7.329;10.600;39.460;32.632;3.823;5.054;41.509;80.969;886;;
Dec 31, 2016;19.334;8.339;11.461;45.781;29.114;3.784;4.723;37.621;83.402;768;;
Sep 30, 2016;13.656;6.566;10.696;35.609;27.177;3.815;4.296;35.288;70.897;789;;
Jun 30, 2016;12.521;6.092;9.588;32.220;25.190;3.774;3.892;32.856;65.076;758;;
Mar 31, 2016;12.470;5.072;9.582;30.513;23.308;3.785;3.522;30.615;61.128;659;;
Dec 31, 2015;15.890;6.423;10.243;36.474;21.838;3.759;3.373;28.970;65.444;675;;
Sep 30, 2015;10.709;5.440;8.981;28.849;20.636;3.529;3.216;27.381;56.230;536;;
Jun 30, 2015;10.269;4.920;7.470;26.391;19.479;3.523;3.047;26.049;52.440;372;;
Mar 31, 2015;10.237;4.772;7.369;25.922;17.736;3.491;2.926;24.153;50.075;310;;
Dec 31, 2014;14.557;5.612;8.299;31.327;16.967;3.319;2.892;23.178;54.505;312;;
Sep 30, 2014;5.258;4.373;7.316;18.572;15.702;3.332;2.813;21.847;40.419;305;;
Jun 30, 2014;5.057;4.125;6.644;18.755;14.089;2.677;2.377;19.143;37.898;312;;
Mar 31, 2014;5.074;3.945;6.716;19.327;12.267;2.653;2.117;17.037;36.364;304;;
Dec 31, 2018;10.019;7.587;1.779;50.480;24.683;18.301;2.576;46.854;50.400;131.09;;
Dec 31, 2017;8.079;5.832;1.020;48.563;13.721;18.221;2.135;35.961;48.56;176.46;;
Dec 31, 2016;8.903;3.993;959;34.401;8.591;18.122;1.312;30.560;34.40;115.05;;
Dec 31, 2015;4.907;2.559;659;21.652;5.687;18.026;796;27.755;21.62;104.66;;
Dec 31, 2014;4.315;1.678;793;13.670;3.967;17.981;637;26.514;17.91;78.02;;
Sep 28, 2019;3.935;6.880;8.638;29.957;53.563;24.727;2.414;103.811;133.768;56.53;;
Jun 29, 2019;2.867;6.233;8.696;29.239;51.377;24.583;2.366;101.520;130.759;50.55;;
Mar 30, 2019;3.154;6.957;7.765;29.060;50.040;24.521;2.305;100.398;129.458;51.04;;
Dec 29, 2018;3.019;6.722;7.253;28.787;48.976;24.513;3.162;99.176;127.963;46.93;;
Sep 29, 2018;3.407;5.457;7.401;29.590;47.071;24.506;3.546;98.652;128.242;46.88;;
Jun 30, 2018;2.614;4.636;7.344;27.603;45.914;24.351;3.398;98.369;125.972;48.10;;
Mar 31, 2018;3.554;4.879;7.146;31.630;43.735;24.346;3.408;96.966;128.596;51.62;;
Dec 30, 2017;3.433;5.607;6.983;29.500;41.109;24.389;2.908;93.749;123.249;46.16;;
Sep 30, 2017;9.075;5.954;6.929;33.154;39.472;24.389;2.767;93.934;127.088;45.49;;
Jul 1, 2017;11.687;5.397;6.324;40.617;38.130;14.102;2.967;81.490;122.107;35.07;;
Apr 1, 2017;4.934;4.921;5.801;36.058;36.911;14.099;2.903;79.590;115.648;36.11;;
Dec 31, 2016;5.560;4.690;5.553;35.508;36.171;14.099;2.956;77.819;113.327;36.27;;
Oct 1, 2016;4.752;4.952;5.783;36.216;34.707;13.868;2.612;76.001;112.217;34.70;;
Jul 2, 2016;3.885;4.426;5.800;31.188;33.804;16.992;3.273;78.643;109.831;35.89;;
Apr 2, 2016;3.061;4.216;5.751;27.397;32.644;16.942;2.339;78.070;105.467;31.59;;
Dec 26, 2015;15.308;4.787;5.167;40.356;31.858;11.332;3.053;62.709;103.065;34.45;;
Sep 26, 2015;7.065;4.101;4.965;36.205;31.597;11.026;4.304;62.347;98.552;33.86;;
Jun 27, 2015;4.454;3.860;4.818;26.710;32.683;11.037;2.267;63.782;90.492;28.95;;
Mar 28, 2015;4.244;3.246;4.418;26.466;33.296;10.766;2.636;63.100;89.566;32.55;;
Dec 27, 2014;2.561;4.427;4.273;27.730;33.238;10.861;3.018;64.226;91.956;36.29;;
Sep 27, 2014;3.143;3.647;4.115;27.509;33.135;10.556;2.479;63.107;90.616;34.01;;
Jun 28, 2014;3.049;3.489;3.943;29.006;33.115;10.621;2.008;62.787;91.793;33.89;;
Mar 29, 2014;4.777;3.505;3.763;30.554;32.502;10.617;1.733;61.378;91.932;26.69;;
Jul 31, 2019;9.283;5.382;44.134;61.371;104.674;31.454;16.174;173.490;234.861;114.26;wmt;
Apr 30, 2019;9.255;5.342;44.751;61.739;104.604;31.416;16.148;172.805;234.544;101.44;wmt;
Jan 31, 2019;7.722;6.283;44.269;61.897;104.317;31.181;14.822;157.398;219.295;95.83;wmt;
Oct 31, 2018;9.174;5.785;50.380;69.446;104.358;31.044;14.744;157.137;226.583;97.65;wmt;
Jul 31, 2018;15.840;5.002;41.985;66.370;104.019;17.840;10.835;139.692;206.062;95.86;wmt;
Apr 30, 2018;7.885;4.568;43.303;59.242;107.622;18.850;12.035;145.685;204.927;82.54;wmt;
Jan 31, 2018;6.756;5.614;43.783;59.664;107.675;18.242;11.798;144.858;204.522;106.60;wmt;
Oct 31, 2017;7.026;5.865;50.147;65.368;108.155;18.204;10.543;144.046;209.414;97.24;wmt;
Jul 31, 2017;6.469;5.395;43.442;56.763;108.170;18.037;11.413;144.803;201.566;78.07;wmt;
Apr 30, 2017;6.545;5.252;43.361;57.336;107.450;17.575;10.638;142.382;199.718;78.60;wmt;
Jan 31, 2017;6.867;5.835;43.046;57.689;107.710;17.037;9.921;141.136;198.825;66.74;wmt;
Oct 31, 2016;5.939;5.344;49.822;63.401;108.676;17.792;10.576;143.456;206.857;70.43;wmt;
Jul 31, 2016;7.676;5.275;43.453;58.232;108.867;16.339;7.905;139.654;197.886;71.44;wmt;
Apr 30, 2016;7.597;5.187;44.513;59.097;109.787;16.751;6.363;139.608;198.705;70.78;wmt;
Jan 31, 2016;8.705;5.624;44.469;60.239;110.171;16.695;6.131;139.342;199.581;66.36;wmt;
Oct 31, 2015;6.990;5.012;50.706;65.112;110.835;17.051;6.025;140.032;205.144;58.84;wmt;
Jul 31, 2015;5.751;5.275;45.007;58.132;112.824;17.799;6.178;140.488;198.620;64.73;wmt;
Apr 30, 2015;7.759;5.813;46.310;62.133;112.151;17.531;5.398;138.614;200.747;74.27;wmt;
Jan 31, 2015;9.135;6.778;45.141;63.278;114.280;18.102;5.671;140.428;203.706;84.98;wmt;
Oct 31, 2014;6.718;6.091;51.501;65.841;114.975;18.888;5.668;142.048;207.889;87.54;wmt;
Jul 31, 2014;6.184;6.146;45.451;59.632;116.266;19.758;5.872;144.353;203.985;75.50;wmt;
Apr 30, 2014;6.012;6.096;45.315;59.687;115.146;19.515;5.901;143.059;202.746;76.77;wmt;
Jan 31, 2014;7.281;6.677;44.858;61.185;115.364;19.510;6.149;143.566;204.751;74.68;wmt;
Oct 31, 2013;8.736;6.206;49.673;67.142;114.654;19.729;5.778;142.734;209.876;81.01;wmt;
Jul 31, 2013;9.016;5.996;42.793;60.002;113.362;19.280;5.693;140.967;200.969;72.98;wmt;
Apr 30, 2013;8.855;6.191;43.138;60.176;113.692;19.734;5.846;142.011;202.187;74.88;wmt;
Aug 30, 2019;2.209.047;1.371.697;727.611;5.750.096;1.244.011;10.688.068;557.080;14.304.784;20.054.880;276;adb;1.441.741
May 31, 2019;2.082.910;1.272.668;590.998;5.342.645;1.205.020;10.697.874;503.221;14.323.264;19.665.909;294;adb;1.396.069
Mar 1, 2019;1.738.846;1.342.343;565.115;5.133.715;1.104.065;10.707.715;542.938;14.371.821;19.505.536;289;adb;1.487.411
Nov 30, 2018;1.642.775;1.315.578;312.499;4.857.039;1.075.072;10.581.048;186.522;13.911.643;18.768.682;226;adb;1.586.187
Aug 31, 2018;1.747.144;1.044.507;311.936;6.300.913;1.019.260;7.136.853;183.821;9.094.707;15.395.620;269;adb;3.197.326
Jun 1, 2018;2.987.986;1.074.877;332.503;7.741.444;993.486;5.823.792;166.234;7.421.960;15.163.404;244;adb;3.346.078
Mar 2, 2018;2.666.981;1.062.690;270.154;7.480.814;991.674;5.843.899;153.648;7.492.671;14.973.485;221;adb;3.480.989
Dec 1, 2017;2.306.072;1.217.968;210.071;7.247.813;936.976;5.821.561;143.548;7.287.743;14.535.556;175;adb;3.513.702
Sep 1, 2017;1.774.550;1.006.187;206.384;6.581.057;939.809;5.820.656;144.626;7.325.758;13.906.815;175;adb;3.593.936
Jun 2, 2017;1.316.950;901.452;219.232;6.052.197;924.108;5.788.703;146.058;7.312.703;13.364.900;146;adb;3.614.563
Mar 3, 2017;1.068.896;850.840;257.105;5.755.562;821.730;5.753.575;144.275;7.289.221;13.044.783;130;adb;3.578.721
Dec 2, 2016;1.011.315;833.033;245.441;5.839.774;816.264;5.406.474;149.758;6.867.340;12.707.114;102;adb;3.749.985
Sep 2, 2016;767.672;731.166;241.146;5.418.710;811.524;5.433.180;169.358;6.948.731;12.367.441;107;adb;3.678.726
Jun 3, 2016;886.379;666.736;253.420;5.238.564;796.077;5.444.556;162.954;6.978.219;12.216.783;97.6;adb;3.432.029
Mar 4, 2016;830.696;599.207;238.295;4.935.390;794.876;5.389.000;178.291;6.961.292;11.896.682;94;adb;3.267.192
Nov 27, 2015;876.560;672.006;161.802;4.821.892;787.421;5.366.881;159.832;6.904.580;11.726.472;93;adb;3.111.524
Aug 28, 2015;829.292;593.554;181.163;4.525.888;797.464;5.402.159;145.635;6.982.507;11.508.395;82;adb;2.839.441
May 29, 2015;956.147;502.617;191.314;4.178.397;785.199;5.388.971;149.179;6.986.986;11.165.383;81;adb;2.457.101
Feb 27, 2015;712.884;532.427;202.442;3.972.159;784.314;5.396.174;146.019;7.036.263;11.008.422;79;adb;2.463.936
Nov 28, 2014;1.117.400;591.800;175.758;4.602.328;785.123;4.721.962;126.315;6.183.501;10.785.829;73;adb;2.622.091
Aug 29, 2014;903.329;528.331;151.227;4.279.468;785.856;4.746.781;110.297;6.214.212;10.493.680;69;adb;2.616.868
May 30, 2014;817.020;531.557;180.086;4.114.343;642.450;4.773.798;102.052;6.257.856;10.372.199;72;adb;2.513.191
Feb 28, 2014;733.916;510.507;208.643;3.942.391;651.083;4.782.448;92.550;6.303.491;10.245.882;68;adb;2.398.176
Nov 29, 2013;834.556;599.820;170.110;4.045.929;659.774;4.771.981;90.121;6.334.369;10.380.298;59;adb;2.339.196
Aug 30, 2013;819.085;522.409;128.495;3.886.124;659.747;4.752.315;90.774;6.348.032;10.234.156;52;adb;2.344.852
May 31, 2013;1.246.410;470.052;143.799;4.557.657;645.865;4.225.169;93.174;5.722.712;10.280.369;45;adb;2.619.298
Mar 1, 2013;1.306.382;485.801;161.663;4.373.083;686.014;4.221.487;97.320;5.792.628;10.165.711;44;adb;2.354.307
Sep 28, 2019;48.844;22.926;4.106;162.819;37.378;;32.978;175.697;338.516;248;aapl;
Jun 29, 2019;50.530;14.148;3.355;134.973;37.636;;33.634;187.266;322.239;213;aapl;
Mar 30, 2019;37.988;15.085;4.884;123.346;38.746;;34.587;218.652;341.998;189;aapl;
Dec 29, 2018;44.771;18.077;4.988;140.828;39.597;;34.686;232.891;373.719;157;aapl;
Sep 29, 2018;25.913;23.186;3.956;131.339;41.304;;22.283;234.386;365.725;218;aapl;
Jun 30, 2018;31.971;14.104;5.936;115.761;38.117;;22.546;233.436;349.197;190;aapl;
Mar 31, 2018;45.059;14.324;7.662;130.053;35.077;;23.086;237.449;367.502;167;aapl;
Dec 30, 2017;27.491;23.440;4.421;143.810;33.679;;21.361;262.984;406.794;169;aapl;
Sep 30, 2017;20.289;17.874;4.855;128.645;33.783;;18.177;246.674;375.319;169;aapl;
Jul 1, 2017;18.571;12.399;3.146;112.875;29.286;;18.255;232.298;345.173;164;aapl;
Apr 1, 2017;15.157;11.579;2.910;101.990;27.163;;15.639;232.542;334.532;152;aapl;
Dec 31, 2016;16.371;14.057;2.712;103.332;26.510;;15.661;227.809;331.141;115;aapl;
Sep 24, 2016;20.484;15.754;2.132;106.869;27.010;;17.377;214.817;321.686;113;aapl;
Jun 25, 2016;18.237;11.714;1.831;93.761;25.448;;16.629;211.841;305.602;104;aapl;
Mar 26, 2016;21.514;12.229;2.281;87.592;23.203;;16.837;217.685;305.277;93;aapl;
Dec 26, 2015;16.689;12.953;2.451;76.219;22.300;;17.100;217.065;293.284;105;aapl;
Sep 26, 2015;21.120;16.849;2.349;89.378;22.471;;14.565;201.101;290.479;119;aapl;
Jun 27, 2015;15.319;10.370;2.042;70.953;21.149;;12.904;202.198;273.151;121;aapl;
Mar 28, 2015;14.489;10.905;2.396;67.891;20.151;;12.709;193.303;261.194;125;aapl;
Dec 27, 2014;19.478;16.709;2.283;83.403;20.392;;12.607;178.491;261.894;110;aapl;
Sep 27, 2014;13.844;17.460;2.111;68.531;20.624;;12.522;163.308;231.839;108;aapl;
Jun 28, 2014;12.977;10.788;1.594;67.949;17.585;;10.301;154.571;222.520;95;aapl;
Mar 29, 2014;18.949;9.700;1.829;70.541;15.120;;11.089;135.448;205.989;84;aapl;
Dec 28, 2013;14.077;14.200;2.122;80.347;15.488;;11.218;144.837;225.184;80;aapl;
Sep 30, 2019;13.117;19.087;2.622;165.896;38.409;42.113;14.455;113.059;278.955;143;msft;123.519
Jun 30, 2019;11.356;29.524;2.063;175.552;36.477;42.026;14.723;111.004;286.556;136;msft;122.463
Mar 31, 2019;11.212;19.269;1.951;159.887;33.648;41.861;10.258;103.394;263.281;130;msft;120.406
Dec 31, 2018;6.638;19.680;1.961;156.874;32.717;41.577;10.129;101.985;258.859;101;msft;121.024
Sep 30, 2018;15.137;17.390;3.614;164.195;31.430;35.855;9.792;93.424;257.619;106;msft;120.743
Jun 30, 2018;11.946;26.481;2.662;169.662;29.460;35.683;7.442;89.186;258.848;106;msft;121.822
Mar 31, 2018;9.221;17.208;2.084;156.659;27.929;35.582;7.106;88.838;245.497;93;msft;123.049
Dec 31, 2017;12.859;18.428;2.003;167.633;26.304;35.355;6.967;88.370;256.003;85;msft;129.921
Sep 30, 2017;6.884;14.561;3.211;161.031;24.809;35.389;6.083;88.066;249.097;83;msft;131.587
Jun 30, 2017;7.663;19.792;2.181;159.851;23.734;35.122;6.250;81.235;241.086;72;msft;125.318
Mar 31, 2017;6.713;12.882;1.979;146.313;21.962;34.668;4.146;78.704;225.017;68;msft;119.305
Dec 31, 2016;8.468;14.343;1.961;144.949;21.379;34.524;3.845;79.661;224.610;62;msft;114.313
Sep 30, 2016;13.928;11.129;3.122;157.909;19.224;17.907;3.476;54.615;212.524;59;msft;123.004
Jun 30, 2016;6.510;18.277;2.251;139.660;18.356;17.872;3.642;54.034;193.694;56;msft;106.730
Mar 31, 2016;7.170;12.247;2.450;128.421;16.831;17.948;2.895;53.448;181.869;55;msft;98.382
Dec 31, 2015;7.185;14.507;2.702;127.812;15.789;17.436;2.928;52.286;180.098;55;msft;95.455
Sep 30, 2015;5.431;11.444;3.816;121.656;15.046;17.142;2.869;51.240;172.896;52;msft;93.924
Jun 30, 2015;5.595;17.908;2.902;124.712;14.731;16.939;2.953;51.511;176.223;47;msft;90.931
Mar 31, 2015;7.414;12.427;2.469;118.398;14.375;21.728;3.200;58.285;176.683;48;msft;88.024
Dec 31, 2014;6.426;16.186;2.053;116.362;13.607;21.855;3.060;58.486;174.848;46;msft;83.823
Sep 30, 2014;6.302;12.887;3.141;112.439;13.229;20.081;3.271;57.217;169.656;46;msft;82.891
Jun 30, 2014;8.669;19.544;2.660;114.246;13.011;20.127;3.422;58.138;172.384;43;msft;77.040
Mar 31, 2014;11.572;13.497;1.920;109.006;11.771;14.751;2.898;47.113;156.119;40;msft;76.853
Dec 31, 2013;10.059;15.986;1.594;106.870;11.567;14.680;2.874;46.673;153.543;37;msft;73.885
Sep 30, 2013;4.023;11.007;2.613;99.450;10.774;14.667;2.480;42.898;142.348;35;msft;76.649
Sep 7, 2019;5.494;8.735;3.667;19.198;17.586;15.338;2.480;58.246;77.444;137;peps;287
Jun 15, 2019;3.293;8.502;3.988;17.212;17.442;15.632;2.354;57.872;75.084;127;peps;291
Mar 23, 2019;5.072;7.604;3.554;17.917;17.550;14.945;2.242;57.549;75.466;128;peps;289
Dec 29, 2018;8.721;7.142;3.128;21.893;17.589;14.808;760;55.755;77.648;110;peps;272
Sep 8, 2018;11.991;7.975;3.142;25.842;16.541;14.332;1.057;47.790;73.632;112;peps;1.907
Jun 16, 2018;13.858;7.841;3.491;30.370;16.762;14.540;977;48.361;78.731;115;peps;4.271
Mar 24, 2018;13.443;7.171;3.335;33.047;17.141;14.795;946;48.840;81.887;109;peps;7.167
Dec 30, 2017;10.610;7.024;2.947;31.027;17.240;14.744;913;48.777;79.804;119;peps;8.900
Sep 9, 2017;10.243;7.923;3.251;30.197;16.960;14.750;771;48.266;78.463;110;peps;8.035
Jun 17, 2017;10.282;7.543;3.612;29.248;16.742;14.655;608;47.695;76.943;116;peps;6.878
Mar 25, 2017;9.528;6.848;3.282;27.150;16.649;14.584;639;47.472;74.622;113;peps;6.461
Dec 31, 2016;9.158;6.694;2.723;27.089;16.591;14.430;636;47.040;74.129;104;peps;6.967
Sep 3, 2016;10.256;7.745;3.120;27.099;16.305;14.394;843;46.798;73.897;107;peps;4.524
Jun 11, 2016;9.646;7.495;3.487;25.878;16.219;14.398;867;46.833;72.711;108;peps;3.733
Mar 19, 2016;8.124;6.707;3.219;23.966;16.105;14.132;832;46.053;70.019;102;peps;4.020
Dec 26, 2015;9.096;6.437;2.720;23.031;16.317;14.177;750;46.636;69.667;99;peps;2.913
Sep 5, 2015;8.698;7.666;3.124;22.814;16.131;14.407;872;47.088;69.902;102;peps;1.981
Jun 13, 2015;7.562;7.826;3.931;23.069;16.736;14.912;888;49.193;72.262;96;peps;2.017
Mar 21, 2015;6.410;6.963;3.462;20.922;16.678;14.681;960;48.703;69.625;95;peps;2.085
Dec 27, 2014;6.134;6.651;3.143;20.663;17.244;14.965;860;49.846;70.509;94.5;peps;2.592
Sep 6, 2014;7.282;8.376;3.784;26.590;17.929;16.225;2.276;53.876;80.466;96;peps;5.624
Jun 14, 2014;7.607;8.470;4.194;25.795;18.174;16.457;2.315;54.638;80.433;88;peps;3.692
Mar 22, 2014;9.839;7.262;3.748;23.285;18.129;16.310;2.233;54.208;77.493;83;peps;247
Sep 30, 2019;4.435.018;;;5.327.758;481.992;;1.896.967;25.613.953;30.941.711;287;netflix;?
Jun 30, 2019;5.004.247;;;5.877.157;452.399;;1.896.043;24.294.182;30.171.339;322;netflix;?
Mar 31, 2019;3.348.557;;;4.168.907;434.372;;1.726.568;23.049.725;27.218.632;370;netflix;?
Dec 31, 2018;3.794.483;;;9.694.135;418.281;;901.030;16.280.265;25.974.400;267;netflix;?
Sep 30, 2018;3.067.534;;;8.729.981;371.152;;856.653;14.636.248;23.366.229;301;netflix;?
Jun 30, 2018;3.906.357;;;9.346.889;349.646;;674.932;13.316.648;22.663.537;337;netflix;?
Mar 31, 2018;2.593.666;;;7.817.576;341.932;;678.486;12.335.221;20.152.797;312;netflix;?
Dec 31, 2017;2.822.795;;;7.669.974;319.404;;652.309;11.342.768;19.012.742;191;netflix;?
Sep 30, 2017;1.746.469;;;6.385.348;322.421;;504.067;10.566.192;16.951.540;196;netflix;?
Jun 30, 2017;1.918.777;;;6.700.785;309.831;;428.133;9.816.438;16.517.223;181;netflix;246.125
Mar 31, 2017;1.077.824;;;5.660.330;275.083;;394.571;8.698.766;14.359.096;152;netflix;263.405
Dec 31, 2016;1.467.576;;;5.720.291;250.395;;341.423;7.866.319;13.586.610;123;netflix;266.206
Sep 30, 2016;969.158;;;5.193.893;191.876;;283.895;7.153.445;12.347.338;124;netflix;374.098
Jun 30, 2016;1.390.925;;;5.386.918;162.864;;300.787;6.206.589;11.593.507;91;netflix;443.303
Mar 31, 2016;1.605.244;;;5.543.836;166.254;;292.024;5.718.438;11.262.274;90;netflix;467.227
Dec 31, 2015;1.809.330;;;5.431.840;173.412;;284.802;4.771.031;10.202.871;114;netflix;501.385
Sep 30, 2015;2.115.437;;;5.569.713;181.268;;273.496;4.346.554;9.916.267;108;netflix;494.205
Jun 30, 2015;2.293.872;;;5.600.510;171.396;;242.188;4.054.351;9.654.861;114;netflix;502.886
Mar 31, 2015;2.454.777;;;5.539.056;145.816;;243.401;3.701.570;9.240.626;60;netflix;502.931
Dec 31, 2014;1.113.608;;;3.940.469;149.875;;192.981;3.116.182;7.056.651;48;netflix;494.888
Sep 30, 2014;1.183.217;;;3.823.482;144.147;;178.818;2.954.847;6.778.329;56;netflix;483.602
Jun 30, 2014;1.214.244;;;3.668.380;141.715;;166.931;2.657.442;6.325.822;60;netflix;500.121
Mar 31, 2014;1.157.450;;;3.586.784;133.473;;148.375;2.461.322;6.048.106;50;netflix;510.793
Aug 31, 2019;31.083;3.820;;42.384;6.264;43.733;6.333;63.845;106.229;55;oracle;
May 31, 2019;20.514;5.134;;46.386;6.252;43.779;4.317;62.323;108.709;57;oracle;
Feb 28, 2019;14.720;3.993;;47.617;6.197;43.776;4.137;61.821;109.438;52;oracle;
Nov 30, 2018;10.824;3.975;;56.938;6.003;43.778;4.014;61.380;118.318;45;oracle;
Aug 31, 2018;18.455;3.729;;67.009;5.918;43.702;4.001;61.349;128.358;51.5;oracle;
May 31, 2018;21.620;5.279;;75.964;5.897;43.755;3.487;61.300;137.264;44;oracle;
Feb 28, 2018;19.487;3.902;;77.732;5.904;42.965;3.385;60.469;138.201;50.6;oracle;
Nov 30, 2017;21.310;3.798;;78.545;5.868;42.964;3.369;60.217;138.762;47;oracle;
Aug 31, 2017;21.321;3.591;;73.335;5.586;43.020;3.289;60.262;133.597;48.4;oracle;
May 31, 2017;21.784;5.300;;74.515;5.315;43.045;3.294;60.476;134.991;50;oracle;
Feb 28, 2017;19.748;3.721;;66.011;5.070;42.504;3.091;59.371;125.382;42.6;oracle;
Nov 30, 2016;18.592;3.690;;64.734;4.882;42.083;3.038;58.866;123.600;38.5;oracle;
Aug 31, 2016;28.614;3.407;;74.451;4.108;35.350;3.081;48.772;123.223;39.2;oracle;
May 31, 2016;20.152;5.385;;64.313;4.000;34.590;3.043;47.867;112.180;40.9;oracle;
Feb 29, 2016;15.583;3.844;;57.069;4.011;34.284;2.899;47.825;104.894;36.8;oracle;
Nov 30, 2015;17.411;3.956;;58.618;3.855;34.171;2.899;47.865;106.483;36.5;oracle;
Aug 31, 2015;16.739;3.475;;62.122;3.896;34.133;2.811;47.584;109.706;36.1;oracle;
May 31, 2015;21.716;5.618;;63.183;3.686;34.087;2.746;47.720;110.903;40.3;oracle;
Feb 28, 2015;13.701;4.178;;51.294;3.335;34.328;2.343;47.522;98.816;43.8;oracle;
Nov 30, 2014;16.153;4.326;;52.040;3.169;33.383;2.119;46.265;98.305;44.95;oracle;
Aug 31, 2014;24.179;3.551;;58.194;3.086;29.707;2.218;41.532;99.726;38.3;oracle;
May 31, 2014;17.769;6.087;;48.138;3.061;29.652;2.519;42.206;90.344;40.53;oracle;
Feb 28, 2014;16.832;4.071;;44.404;3.052;29.322;2.506;42.158;86.562;39.1;oracle;
Nov 30, 2013;14.894;4.192;;44.252;3.039;28.269;2.397;40.986;85.238;38.26;oracle;
Aug 31, 2013;19.664;3.450;;45.457;3.052;27.965;2.296;40.949;86.406;33;oracle;
Jun 30, 2019;4.763.300;790.600;1.517.200;7.734.800;6.187.800;3.564.700;458.000;458.000;20.894.400;94.7;sbux;72.100
Mar 31, 2019;2.055.100;703.600;1.443.000;4.952.300;6.135.500;3.603.500;464.500;464.500;17.641.900;74.3;sbux;76.600
Dec 30, 2018;4.761.600;721.400;1.354.600;7.676.300;6.039.300;3.560.300;472.700;472.700;19.981.300;64.4;sbux;230.200
Sep 30, 2018;8.756.300;693.100;1.400.500;12.494.200;5.929.100;3.541.600;412.200;412.200;24.156.400;58.3;sbux;181.500
Jul 1, 2018;1.892.100;854.800;1.387.400;5.583.400;5.689.600;3.647.600;404.700;404.700;17.182.100;53.45;sbux;84.500
Apr 1, 2018;2.142.000;869.600;1.375.900;5.657.000;5.576.800;3.793.500;541.800;541.800;17.553.500;55.67;sbux;100.500
Dec 31, 2017;3.661.400;851.800;1.313.200;6.883.500;5.378.700;3.674.800;526.300;526.300;18.518.500;57.43;sbux;106.600
Oct 1, 2017;2.462.300;870.400;1.364.000;5.283.400;4.919.500;1.539.200;362.800;362.800;14.365.600;57.82;sbux;228.600
Jul 2, 2017;2.716.200;791.100;1.357.300;5.509.300;4.699.800;1.549.100;365.300;365.300;14.522.700;54.86;sbux;289.900
Apr 2, 2017;2.163.900;791.000;1.323.600;4.919.400;4.564.500;1.635.800;368.000;368.000;14.227.900;63.61;sbux;231.000
Jan 1, 2017;2.034.600;865.100;1.218.700;4.616.200;4.478.500;1.599.000;394.900;394.900;14.017.300;55.22;sbux;140.800
Oct 2, 2016;2.128.800;768.800;1.378.500;4.760.500;4.533.800;1.719.600;417.700;417.700;14.329.500;57.97;sbux;134.400
Jun 26, 2016;2.141.800;747.300;1.325.100;4.856.200;4.359.200;1.705.100;391.100;391.100;13.833.200;58;sbux;174.500
Mar 27, 2016;1.294.400;743.700;1.293.100;3.883.500;4.246.900;1.625.000;401.200;401.200;12.519.400;56.23;sbux;123.200
Dec 27, 2015;2.263.500;764.400;1.242.600;4.727.700;4.122.500;1.572.300;416.900;416.900;12.943.500;60;sbux;116.400
Sep 27, 2015;1.530.100;719.000;1.306.400;4.352.700;4.088.300;1.575.400;415.900;415.900;12.446.100;62.57;sbux;81.300
Jun 28, 2015;2.080.500;672.700;1.166.000;4.760.700;3.977.700;1.560.600;443.300;443.300;12.868.800;57.97;sbux;94.700
Mar 29, 2015;1.750.400;655.600;1.061.100;4.245.400;3.897.700;1.592.200;395.200;395.200;12.190.700;49.58;sbux;99.400
Dec 28, 2014;1.857.000;664.900;1.018.300;4.546.100;3.822.300;1.584.900;382.200;382.200;12.351.100;41;sbux;96.100
Sep 28, 2014;1.708.400;631.000;1.090.900;4.168.700;3.519.000;856.200;198.900;198.900;10.752.900;37.78;sbux;135.400
Jun 29, 2014;1.019.400;580.900;1.025.800;3.356.900;3.373.700;861.700;193.000;193.000;10.385.300;38.81;sbux;176.900
Mar 30, 2014;1.190.300;590.000;954.700;3.579.000;3.278.100;860.800;195.900;195.900;10.097.000;35.3;sbux;299.200
Dec 29, 2013;1.545.800;589.800;943.300;3.759.400;3.233.000;862.600;205.800;205.800;10.255.200;39.2;sbux;157.000
Sep 29, 2013;2.575.700;561.400;1.111.200;5.471.400;3.200.500;862.900;185.300;185.300;11.516.700;40.1;sbux;658.100
Jun 30, 2013;1.430.800;506.800;1.173.800;4.239.700;2.987.100;860.900;485.800;485.800;9.062.400;35.65;sbux;613.500
Mar 31, 2013;1.223.200;520.000;1.124.500;3.810.200;2.845.300;863.600;514.800;514.800;8.502.800;30.52;sbux;474.500
Dec 30, 2012;1.852.100;469.200;1.093.200;4.416.000;2.711.100;400.200;428.500;428.500;8.490.100;26.82;sbux;607.600
Sep 30, 2019;6.466;1.788;1.985;10.056;706;2.885;885;11.390;21.446;2.048;bkg;973
Jun 30, 2019;5.256;1.973;2.041;10.020;716;2.915;545;11.474;21.494;1.886;bkg;1.553
Mar 31, 2019;2.334;1.491;2.078;7.077;695;2.907;529;15.289;22.366;1.854;bkg;1.981
Dec 31, 2018;2.624;1.523;2.125;8.407;656;2.910;181;14.280;22.687;1.722;bkg;3.660
Sep 30, 2018;2.973;1.719;2.117;9.468;643;2.845;183;14.903;24.370;1.874;bkg;4.158
Jun 30, 2018;3.187;1.715;2.163;10.033;613;2.850;191;15.263;25.296;2.028;bkg;4.146
Mar 31, 2018;2.622;1.530;2.140;9.505;573;2.755;613;15.514;25.019;2.178;bkg;4.241
Dec 31, 2017;2.542;1.218;2.177;9.035;480;2.738;600;16.416;25.451;1.737;bkg;4.860
Sep 30, 2017;2.846;1.438;2.218;9.125;458;2.728;147;16.665;25.789;1.911;bkg;4.407
Jun 30, 2017;2.634;1.231;1.915;8.273;425;2.419;164;15.186;23.458;2.028;bkg;3.722
Mar 31, 2017;2.434;934;1.952;6.988;381;2.402;130;15.006;21.994;1.846;bkg;2.936
Dec 31, 2016;2.081;860;1.994;5.402;347;2.397;109;14.437;19.839;1.466;bkg;2.219
Sep 30, 2016;2.422;1.105;2.040;5.834;340;2.416;107;14.200;20.034;1.474;bkg;1.956
Jun 30, 2016;2.694;983;2.082;5.914;320;3.361;55;13.773;19.687;1.350;bkg;1.677
Mar 31, 2016;1.857;857;2.129;4.865;300;3.378;69;13.470;18.335;1.343;bkg;1.526
Dec 31, 2015;1.477;645;2.168;3.553;275;3.375;119;13.867;17.421;1.274;bkg;1.171
Sep 30, 2015;1.842;891;2.203;4.299;257;3.387;141;12.316;16.615;1.425;bkg;1.211
Jun 30, 2015;1.889;890;2.247;4.693;246;3.366;79;12.334;17.027;1.243;bkg;1.299
Mar 31, 2015;3.256;707;2.282;5.967;215;3.328;76;10.875;16.842;1.237;bkg;1.380
Dec 31, 2014;3.149;644;2.335;5.267;199;3.326;57;9.673;14.941;1.010;bkg;1.142
Sep 30, 2014;5.044;844;2.175;7.304;204;3.483;48;7.881;15.184;1.206;bkg;1.193
Jun 30, 2014;3.504;841;977;8.509;169;1.906;34;3.092;11.600;1.242;bkg;3.661
Mar 31, 2014;1.288;627;998;7.856;149;1.772;33;2.958;10.814;1.157;bkg;5.422
Sep 30, 2019;276;2.394;17.540;2.900;1.960;8.990;599;21.912;24.812;126.55;MAR;580
Jun 30, 2019;284;2.328;17.681;2.869;1.945;9.067;573;22.024;24.893;139.06;MAR;580
Mar 31, 2019;258;2.218;17.655;2.735;1.961;9.053;537;22.011;24.746;136.42;MAR;584
Dec 31, 2018;316;2.133;17.419;2.706;1.956;9.039;587;20.990;23.696;114;MAR;732
Sep 30, 2018;373;2.175;17.470;2.803;1.967;9.067;611;21.030;23.833;116.89;MAR;689
Jun 30, 2018;366;2.174;17.543;2.817;1.958;9.103;596;21.027;23.844;127.84;MAR;638
Mar 31, 2018;701;2.098;17.864;3.152;1.791;9.270;604;21.332;24.484;136.68;MAR;754
Dec 31, 2017;383;1.991;18.012;2.747;1.793;9.207;421;21.201;23.948;147;MAR;740
Sep 30, 2017;508;1.914;17.940;2.944;1.894;9.182;400;21.292;24.236;119.48;MAR;720
Jun 30, 2017;498;1.804;17.351;2.830;2.102;8.582;442;21.051;23.881;104.19;MAR;762
Mar 31, 2017;738;1.752;17.125;3.121;2.109;7.802;439;20.804;23.925;94.42;MAR;745
Dec 31, 2016;858;1.695;16.868;3.371;2.335;7.598;477;20.769;24.140;84.2;MAR;728
Sep 30, 2016;1.078;1.705;17.223;3.787;2.411;7.175;419;21.215;25.002;68.70;MAR;830
Jun 30, 2016;679;1.152;2.420;1.959;1.056;947;223;4.691;6.650;71.70;MAR;179
Mar 31, 2016;99;1.143;2.414;1.424;1.042;946;234;4.697;6.121;70.09;MAR;169
Dec 31, 2015;96;1.103;2.394;1.384;1.029;943;223;4.698;6.082;61.3;MAR;165
Sep 30, 2015;95;1.144;2.420;1.723;985;970;247;4.430;6.153;76.78;MAR;174
Jun 30, 2015;140;1.188;2.414;1.906;987;962;247;4.415;6.321;72.61;MAR;216
Mar 31, 2015;120;1.172;2.289;1.828;1.446;894;400;4.975;6.803;80.05;MAR;217
Dec 31, 2014;104;1.100;2.245;1.921;1.460;894;270;4.944;6.865;74.5;MAR;224
Sep 30, 2014;150;1.030;2.236;1.552;1.736;894;277;5.295;6.847;75.75;MAR;234
Jun 30, 2014;192;1.057;2.228;1.537;1.647;894;352;5.293;6.830;64.71;MAR;229
Mar 31, 2014;184;1.035;2.000;1.565;1.569;874;541;5.100;6.665;57.93;MAR;222
Sep 30, 2013;144;972;1.989;1.646;1.489;874;320;4.834;6.480;45.08;MAR;228
Jun 30, 2013;108;1.006;1.991;1.404;1.634;874;303;4.973;6.377;41.57;MAR;228
Mar 31, 2013;221;1.080;1.993;1.626;1.574;874;257;4.897;6.523;43.06;MAR;230
Sep 30, 2019;1.177.300;2.005.300;42.600;3.604.900;37.748.000;2.541.800;6.409.200;42.200.100;45.805.000;196.70;mcd;1.245.400
Jun 30, 2019;1.134.500;2.055.000;44.200;3.915.400;38.192.400;2.580.500;6.257.400;42.284.400;46.199.800;210.72;mcd;1.227.300
Mar 31, 2019;2.289.100;1.992.700;40.800;4.964.400;37.774.000;2.317.800;5.893.500;41.502.200;46.466.600;197.57;mcd;1.190.200
Dec 31, 2018;866.000;2.441.500;51.100;4.053.200;37.193.600;2.331.500;5.915.300;28.758.000;32.811.200;178;mcd;1.202.800
Sep 30, 2018;2.574.500;2.266.800;41.900;5.553.100;36.946.400;2.345.000;5.887.000;28.500.600;34.053.700;176.90;mcd;1.135.500
Jun 30, 2018;1.623.500;2.217.200;49.600;4.355.600;36.577.300;2.347.200;5.991.600;28.352.800;32.708.400;157.54;mcd;1.127.600
Mar 31, 2018;2.468.000;1.951.600;53.800;4.909.300;37.164.700;2.404.800;6.109.600;28.813.600;33.722.900;167.44;mcd;1.147.400
Dec 31, 2017;2.463.800;1.976.200;58.800;5.327.200;36.626.400;2.379.700;6.028.200;28.476.500;33.803.700;171.14;mcd;1.085.700
Sep 30, 2017;2.671.200;1.569.000;54.200;4.790.300;36.038.900;2.373.300;5.790.700;27.769.300;32.559.600;166.91;mcd;999.800
Jun 30, 2017;2.392.400;1.457.300;56.700;5.892.500;35.397.900;2.345.200;5.203.400;26.892.700;32.785.200;155.14;mcd;779.700
Mar 31, 2017;2.412.200;1.336.700;56.800;5.907.200;34.451.500;2.299.200;4.999.000;26.213.100;32.120.300;139.93;mcd;766.500
Dec 31, 2016;1.223.400;1.474.100;58.900;4.848.600;34.443.400;2.336.500;4.917.700;26.175.300;31.023.900;122;mcd;725.900
Sep 30, 2016;2.266.700;1.349.800;90.500;4.302.100;37.931.100;2.504.700;5.199.100;28.184.800;32.486.900;112.57;mcd;878.000
Jun 30, 2016;3.128.000;1.267.100;87.400;5.046.600;37.814.400;2.498.600;5.250.000;28.099.900;33.146.500;117.65;mcd;852.100
Mar 31, 2016;3.310.100;1.162.100;93.700;5.051.600;38.427.200;2.569.800;5.322.000;28.743.800;33.795.400;126.49;mcd;820.100
Dec 31, 2015;7.685.500;1.298.700;100.100;9.643.000;37.692.400;2.516.300;5.178.100;28.295.700;37.938.700;123.7;mcd;792.700
Sep 30, 2015;2.452.500;1.136.200;99.300;4.492.600;37.865.700;2.581.600;5.227.500;28.466.900;32.959.500;112.25;mcd;846.700
Jun 30, 2015;3.998.500;1.178.600;102.300;5.972.200;38.391.900;2.627.500;5.284.500;28.975.700;34.947.900;99.86;mcd;860.300
Mar 31, 2015;1.634.800;1.091.800;98.800;3.592.800;37.551.000;2.593.500;5.261.100;28.562.800;32.155.600;96.55;mcd;900.500
Dec 31, 2014;2.077.900;1.214.400;110.000;4.185.500;39.126.100;2.735.300;5.538.400;30.095.900;34.281.400;92.44;mcd;1.004.500
Sep 30, 2014;2.825.800;1.226.700;105.000;5.210.400;39.804.600;2.811.200;5.825.100;30.810.400;36.020.800;93.73;mcd;1.106.400
Jun 30, 2014;3.670.600;1.294.500;110.700;5.913.700;41.007.100;2.902.300;5.989.600;31.866.900;37.780.600;94.56;mcd;1.231.600
Mar 31, 2014;2.743.800;1.229.700;106.200;4.836.300;40.503.300;2.891.500;5.882.800;31.532.800;36.369.100;101.38;mcd;1.223.800
